^C:\USERS\CRAIG\DOCUMENTS\CODING\FALCUNITY\HAPTICSCLASS.CPP
/c /I"C:\Program Files (x86)\Novint\HDAL_SDK_2.1.3\include" /IC:\Users\Craig\Documents\Coding\FalcUnity\\src /Zi /nologo /W3 /WX- /sdl /O2 /Oi /Oy- /GL /D _WINDLL /D _MBCS /Gm- /EHsc /MD /GS /Gy /fp:precise /Zc:wchar_t /Zc:forScope /Fo"RELEASE\\" /Fd"RELEASE\VC120.PDB" /Gd /TP /analyze- C:\USERS\CRAIG\DOCUMENTS\CODING\FALCUNITY\HAPTICSCLASS.CPP
^C:\USERS\CRAIG\DOCUMENTS\CODING\FALCUNITY\SRC\STDAFX.CPP
/c /I"C:\Program Files (x86)\Novint\HDAL_SDK_2.1.3\include" /IC:\Users\Craig\Documents\Coding\FalcUnity\\src /Zi /nologo /W3 /WX- /sdl /O2 /Oi /Oy- /GL /D _WINDLL /D _MBCS /Gm- /EHsc /MD /GS /Gy /fp:precise /Zc:wchar_t /Zc:forScope /Fo"RELEASE\\" /Fd"RELEASE\VC120.PDB" /Gd /TP /analyze- C:\USERS\CRAIG\DOCUMENTS\CODING\FALCUNITY\SRC\STDAFX.CPP
^C:\USERS\CRAIG\DOCUMENTS\CODING\FALCUNITY\WRAPPER.CPP
/c /I"C:\Program Files (x86)\Novint\HDAL_SDK_2.1.3\include" /IC:\Users\Craig\Documents\Coding\FalcUnity\\src /Zi /nologo /W3 /WX- /sdl /O2 /Oi /Oy- /GL /D _WINDLL /D _MBCS /Gm- /EHsc /MD /GS /Gy /fp:precise /Zc:wchar_t /Zc:forScope /Fo"RELEASE\\" /Fd"RELEASE\VC120.PDB" /Gd /TP /analyze- C:\USERS\CRAIG\DOCUMENTS\CODING\FALCUNITY\WRAPPER.CPP
